%YAML 1.1
%TAG !u! tag:unity3d.com,2011:
--- !u!1 &205752199135719842
GameObject:
  m_ObjectHideFlags: 0
  m_CorrespondingSourceObject: {fileID: 0}
  m_PrefabInstance: {fileID: 0}
  m_PrefabAsset: {fileID: 0}
  serializedVersion: 6
  m_Component:
  - component: {fileID: 3891397971351478442}
  m_Layer: 0
  m_Name: mixamorig:LeftHand
  m_TagString: Untagged
  m_Icon: {fileID: 0}
  m_NavMeshLayer: 0
  m_StaticEditorFlags: 0
  m_IsActive: 1
--- !u!4 &3891397971351478442
Transform:
  m_ObjectHideFlags: 0
  m_CorrespondingSourceObject: {fileID: 0}
  m_PrefabInstance: {fileID: 0}
  m_PrefabAsset: {fileID: 0}
  m_GameObject: {fileID: 205752199135719842}
  m_LocalRotation: {x: -3.3793294e-28, y: -0.00019933264, z: -2.4412056e-20, w: 1}
  m_LocalPosition: {x: -1.7763568e-17, y: 0.238485, z: 0}
  m_LocalScale: {x: 0.99996746, y: 1, z: 0.99996746}
  m_Children:
  - {fileID: 6495937698519408492}
  m_Father: {fileID: 7794663517266570098}
  m_RootOrder: 0
  m_LocalEulerAnglesHint: {x: 0, y: 0, z: 0}
--- !u!1 &845307668868607396
GameObject:
  m_ObjectHideFlags: 0
  m_CorrespondingSourceObject: {fileID: 0}
  m_PrefabInstance: {fileID: 0}
  m_PrefabAsset: {fileID: 0}
  serializedVersion: 6
  m_Component:
  - component: {fileID: 5874495898557772657}
  m_Layer: 0
  m_Name: mixamorig:RightHand
  m_TagString: Untagged
  m_Icon: {fileID: 0}
  m_NavMeshLayer: 0
  m_StaticEditorFlags: 0
  m_IsActive: 1
--- !u!4 &5874495898557772657
Transform:
  m_ObjectHideFlags: 0
  m_CorrespondingSourceObject: {fileID: 0}
  m_PrefabInstance: {fileID: 0}
  m_PrefabAsset: {fileID: 0}
  m_GameObject: {fileID: 845307668868607396}
  m_LocalRotation: {x: 2.6090508e-28, y: 0.00024915175, z: -3.0512812e-20, w: 1}
  m_LocalPosition: {x: 0.00000016519432, y: 0.238493, z: 0.0000019931315}
  m_LocalScale: {x: 0.9999588, y: 1, z: 0.9999588}
  m_Children:
  - {fileID: 4126991987629738371}
  - {fileID: 3155977776461822662}
  - {fileID: 2908657012856934594}
  - {fileID: 4060643833997354988}
  - {fileID: 5352205029159497550}
  m_Father: {fileID: 7237314424224007405}
  m_RootOrder: 0
  m_LocalEulerAnglesHint: {x: 0, y: 0, z: 0}
--- !u!1 &1371968225773032128
GameObject:
  m_ObjectHideFlags: 0
  m_CorrespondingSourceObject: {fileID: 0}
  m_PrefabInstance: {fileID: 0}
  m_PrefabAsset: {fileID: 0}
  serializedVersion: 6
  m_Component:
  - component: {fileID: 4632269685988726420}
  m_Layer: 0
  m_Name: mixamorig:Hips
  m_TagString: Untagged
  m_Icon: {fileID: 0}
  m_NavMeshLayer: 0
  m_StaticEditorFlags: 0
  m_IsActive: 1
--- !u!4 &4632269685988726420
Transform:
  m_ObjectHideFlags: 0
  m_CorrespondingSourceObject: {fileID: 0}
  m_PrefabInstance: {fileID: 0}
  m_PrefabAsset: {fileID: 0}
  m_GameObject: {fileID: 1371968225773032128}
  m_LocalRotation: {x: 0, y: -0, z: -0, w: 1}
  m_LocalPosition: {x: 0.000002, y: 0.744781, z: -0.010113999}
  m_LocalScale: {x: 1, y: 1, z: 1}
  m_Children:
  - {fileID: 4434281910212348541}
  - {fileID: 7979242010476511221}
  - {fileID: 4639219303194448690}
  m_Father: {fileID: 5166739633405998098}
  m_RootOrder: 1
  m_LocalEulerAnglesHint: {x: 0, y: 0, z: 0}
--- !u!1 &1789119261601038469
GameObject:
  m_ObjectHideFlags: 0
  m_CorrespondingSourceObject: {fileID: 0}
  m_PrefabInstance: {fileID: 0}
  m_PrefabAsset: {fileID: 0}
  serializedVersion: 6
  m_Component:
  - component: {fileID: 2154965919309058322}
  m_Layer: 0
  m_Name: mixamorig:RightShoulder
  m_TagString: Untagged
  m_Icon: {fileID: 0}
  m_NavMeshLayer: 0
  m_StaticEditorFlags: 0
  m_IsActive: 1
--- !u!4 &2154965919309058322
Transform:
  m_ObjectHideFlags: 0
  m_CorrespondingSourceObject: {fileID: 0}
  m_PrefabInstance: {fileID: 0}
  m_PrefabAsset: {fileID: 0}
  m_GameObject: {fileID: 1789119261601038469}
  m_LocalRotation: {x: -0.54812354, y: -0.44321102, z: 0.5605039, w: -0.43469527}
  m_LocalPosition: {x: 0.089898996, y: 0.14855938, z: -0.0023451499}
  m_LocalScale: {x: 0.99994123, y: 1.000032, z: 0.999944}
  m_Children:
  - {fileID: 6401471564746266997}
  m_Father: {fileID: 6565898154654503269}
  m_RootOrder: 2
  m_LocalEulerAnglesHint: {x: 0, y: 0, z: 0}
--- !u!1 &2494244646428466378
GameObject:
  m_ObjectHideFlags: 0
  m_CorrespondingSourceObject: {fileID: 0}
  m_PrefabInstance: {fileID: 0}
  m_PrefabAsset: {fileID: 0}
  serializedVersion: 6
  m_Component:
  - component: {fileID: 7979242010476511221}
  m_Layer: 0
  m_Name: mixamorig:RightUpLeg
  m_TagString: Untagged
  m_Icon: {fileID: 0}
  m_NavMeshLayer: 0
  m_StaticEditorFlags: 0
  m_IsActive: 1
--- !u!4 &7979242010476511221
Transform:
  m_ObjectHideFlags: 0
  m_CorrespondingSourceObject: {fileID: 0}
  m_PrefabInstance: {fileID: 0}
  m_PrefabAsset: {fileID: 0}
  m_GameObject: {fileID: 2494244646428466378}
  m_LocalRotation: {x: -0.000018452578, y: 0.04303988, z: 0.9990696, w: -0.0027517246}
  m_LocalPosition: {x: 0.179747, y: -0.064775, z: 0.0068889996}
  m_LocalScale: {x: 1.0000151, y: 1.00002, z: 1.0000049}
  m_Children:
  - {fileID: 795139852452830133}
  m_Father: {fileID: 4632269685988726420}
  m_RootOrder: 1
  m_LocalEulerAnglesHint: {x: 0, y: 0, z: 0}
--- !u!1 &2527880198242061684
GameObject:
  m_ObjectHideFlags: 0
  m_CorrespondingSourceObject: {fileID: 0}
  m_PrefabInstance: {fileID: 0}
  m_PrefabAsset: {fileID: 0}
  serializedVersion: 6
  m_Component:
  - component: {fileID: 1278191655668837879}
  m_Layer: 0
  m_Name: mixamorig:LeftShoulder
  m_TagString: Untagged
  m_Icon: {fileID: 0}
  m_NavMeshLayer: 0
  m_StaticEditorFlags: 0
  m_IsActive: 1
--- !u!4 &1278191655668837879
Transform:
  m_ObjectHideFlags: 0
  m_CorrespondingSourceObject: {fileID: 0}
  m_PrefabInstance: {fileID: 0}
  m_PrefabAsset: {fileID: 0}
  m_GameObject: {fileID: 2527880198242061684}
  m_LocalRotation: {x: 0.5491519, y: -0.4424754, z: 0.5596123, w: 0.43529508}
  m_LocalPosition: {x: -0.089898996, y: 0.1485345, z: -0.0020411725}
  m_LocalScale: {x: 0.99995977, y: 1.000032, z: 0.99992764}
  m_Children:
  - {fileID: 8401421276507048617}
  m_Father: {fileID: 6565898154654503269}
  m_RootOrder: 0
  m_LocalEulerAnglesHint: {x: 0, y: 0, z: 0}
--- !u!1 &2844320188208795276
GameObject:
  m_ObjectHideFlags: 0
  m_CorrespondingSourceObject: {fileID: 0}
  m_PrefabInstance: {fileID: 0}
  m_PrefabAsset: {fileID: 0}
  serializedVersion: 6
  m_Component:
  - component: {fileID: 7794663517266570098}
  m_Layer: 0
  m_Name: mixamorig:LeftForeArm
  m_TagString: Untagged
  m_Icon: {fileID: 0}
  m_NavMeshLayer: 0
  m_StaticEditorFlags: 0
  m_IsActive: 1
--- !u!4 &7794663517266570098
Transform:
  m_ObjectHideFlags: 0
  m_CorrespondingSourceObject: {fileID: 0}
  m_PrefabInstance: {fileID: 0}
  m_PrefabAsset: {fileID: 0}
  m_GameObject: {fileID: 2844320188208795276}
  m_LocalRotation: {x: -1.2246559e-16, y: -0.0009549997, z: -1.8127986e-24, w: 0.9999996}
  m_LocalPosition: {x: -1.7763568e-17, y: 0.315794, z: 0}
  m_LocalScale: {x: 1.0000424, y: 1, z: 1.0000424}
  m_Children:
  - {fileID: 3891397971351478442}
  m_Father: {fileID: 8401421276507048617}
  m_RootOrder: 0
  m_LocalEulerAnglesHint: {x: 0, y: 0, z: 0}
--- !u!1 &2878222283553838472
GameObject:
  m_ObjectHideFlags: 0
  m_CorrespondingSourceObject: {fileID: 0}
  m_PrefabInstance: {fileID: 0}
  m_PrefabAsset: {fileID: 0}
  serializedVersion: 6
  m_Component:
  - component: {fileID: 8401421276507048617}
  m_Layer: 0
  m_Name: mixamorig:LeftArm
  m_TagString: Untagged
  m_Icon: {fileID: 0}
  m_NavMeshLayer: 0
  m_StaticEditorFlags: 0
  m_IsActive: 1
--- !u!4 &8401421276507048617
Transform:
  m_ObjectHideFlags: 0
  m_CorrespondingSourceObject: {fileID: 0}
  m_PrefabInstance: {fileID: 0}
  m_PrefabAsset: {fileID: 0}
  m_GameObject: {fileID: 2878222283553838472}
  m_LocalRotation: {x: -0.11549168, y: -0.00064189767, z: -0.008935747, w: 0.9932681}
  m_LocalPosition: {x: -0.000005047838, y: 0.19115397, z: 0.00000405974}
  m_LocalScale: {x: 1.000006, y: 0.99997085, z: 1.0000352}
  m_Children:
  - {fileID: 7794663517266570098}
  m_Father: {fileID: 1278191655668837879}
  m_RootOrder: 0
  m_LocalEulerAnglesHint: {x: 0, y: 0, z: 0}
--- !u!1 &3932642356300555964
GameObject:
  m_ObjectHideFlags: 0
  m_CorrespondingSourceObject: {fileID: 0}
  m_PrefabInstance: {fileID: 0}
  m_PrefabAsset: {fileID: 0}
  serializedVersion: 6
  m_Component:
  - component: {fileID: 6401471564746266997}
  m_Layer: 0
  m_Name: mixamorig:RightArm
  m_TagString: Untagged
  m_Icon: {fileID: 0}
  m_NavMeshLayer: 0
  m_StaticEditorFlags: 0
  m_IsActive: 1
--- !u!4 &6401471564746266997
Transform:
  m_ObjectHideFlags: 0
  m_CorrespondingSourceObject: {fileID: 0}
  m_PrefabInstance: {fileID: 0}
  m_PrefabAsset: {fileID: 0}
  m_GameObject: {fileID: 3932642356300555964}
  m_LocalRotation: {x: -0.11534637, y: 0.000385619, z: 0.010626714, w: 0.99326843}
  m_LocalPosition: {x: 0.000005914681, y: 0.19115347, z: 0.0000062301497}
  m_LocalScale: {x: 1.0000173, y: 0.99997, z: 1.0000125}
  m_Children:
  - {fileID: 7237314424224007405}
  m_Father: {fileID: 2154965919309058322}
  m_RootOrder: 0
  m_LocalEulerAnglesHint: {x: 0, y: 0, z: 0}
--- !u!1 &3941951716781472761
GameObject:
  m_ObjectHideFlags: 0
  m_CorrespondingSourceObject: {fileID: 0}
  m_PrefabInstance: {fileID: 0}
  m_PrefabAsset: {fileID: 0}
  serializedVersion: 6
  m_Component:
  - component: {fileID: 8377420107291650880}
  m_Layer: 0
  m_Name: mixamorig:Spine1
  m_TagString: Untagged
  m_Icon: {fileID: 0}
  m_NavMeshLayer: 0
  m_StaticEditorFlags: 0
  m_IsActive: 1
--- !u!4 &8377420107291650880
Transform:
  m_ObjectHideFlags: 0
  m_CorrespondingSourceObject: {fileID: 0}
  m_PrefabInstance: {fileID: 0}
  m_PrefabAsset: {fileID: 0}
  m_GameObject: {fileID: 3941951716781472761}
  m_LocalRotation: {x: 6.938894e-18, y: 0, z: -0, w: 1}
  m_LocalPosition: {x: -0, y: 0.136421, z: 0.0000023191767}
  m_LocalScale: {x: 1, y: 1, z: 1}
  m_Children:
  - {fileID: 6565898154654503269}
  m_Father: {fileID: 4639219303194448690}
  m_RootOrder: 0
  m_LocalEulerAnglesHint: {x: 0, y: 0, z: 0}
--- !u!1 &4166839209791344416
GameObject:
  m_ObjectHideFlags: 0
  m_CorrespondingSourceObject: {fileID: 0}
  m_PrefabInstance: {fileID: 0}
  m_PrefabAsset: {fileID: 0}
  serializedVersion: 6
  m_Component:
  - component: {fileID: 6562958109441913597}
  m_Layer: 0
  m_Name: mixamorig:LeftLeg
  m_TagString: Untagged
  m_Icon: {fileID: 0}
  m_NavMeshLayer: 0
  m_StaticEditorFlags: 0
  m_IsActive: 1
--- !u!4 &6562958109441913597
Transform:
  m_ObjectHideFlags: 0
  m_CorrespondingSourceObject: {fileID: 0}
  m_PrefabInstance: {fileID: 0}
  m_PrefabAsset: {fileID: 0}
  m_GameObject: {fileID: 4166839209791344416}
  m_LocalRotation: {x: -0.13877426, y: -0.00045474977, z: 0.0061347988, w: 0.99030495}
  m_LocalPosition: {x: -0.000008188851, y: 0.2708863, z: -0.0000026203313}
  m_LocalScale: {x: 1.000008, y: 0.99996877, z: 0.9999606}
  m_Children:
  - {fileID: 1470591286461894250}
  m_Father: {fileID: 4434281910212348541}
  m_RootOrder: 0
  m_LocalEulerAnglesHint: {x: 0, y: 0, z: 0}
--- !u!1 &4565400650758952565
GameObject:
  m_ObjectHideFlags: 0
  m_CorrespondingSourceObject: {fileID: 0}
  m_PrefabInstance: {fileID: 0}
  m_PrefabAsset: {fileID: 0}
  serializedVersion: 6
  m_Component:
  - component: {fileID: 3149365507443954405}
  m_Layer: 0
  m_Name: mixamorig:Head
  m_TagString: Untagged
  m_Icon: {fileID: 0}
  m_NavMeshLayer: 0
  m_StaticEditorFlags: 0
  m_IsActive: 1
--- !u!4 &3149365507443954405
Transform:
  m_ObjectHideFlags: 0
  m_CorrespondingSourceObject: {fileID: 0}
  m_PrefabInstance: {fileID: 0}
  m_PrefabAsset: {fileID: 0}
  m_GameObject: {fileID: 4565400650758952565}
  m_LocalRotation: {x: 0, y: -0, z: -0, w: 1}
  m_LocalPosition: {x: -0, y: 0.087269, z: 0.004216}
  m_LocalScale: {x: 1, y: 1, z: 1}
  m_Children:
  - {fileID: 2693128405823300829}
  - {fileID: 5813247600711581612}
  - {fileID: 6949575583352491074}
  - {fileID: 771956764410605075}
  - {fileID: 7621012105980579098}
  - {fileID: 1755685869706224066}
  m_Father: {fileID: 6252056689905362309}
  m_RootOrder: 0
  m_LocalEulerAnglesHint: {x: 0, y: 0, z: 0}
--- !u!1 &4811937276114587710
GameObject:
  m_ObjectHideFlags: 0
  m_CorrespondingSourceObject: {fileID: 0}
  m_PrefabInstance: {fileID: 0}
  m_PrefabAsset: {fileID: 0}
  serializedVersion: 6
  m_Component:
  - component: {fileID: 6565898154654503269}
  m_Layer: 0
  m_Name: mixamorig:Spine2
  m_TagString: Untagged
  m_Icon: {fileID: 0}
  m_NavMeshLayer: 0
  m_StaticEditorFlags: 0
  m_IsActive: 1
--- !u!4 &6565898154654503269
Transform:
  m_ObjectHideFlags: 0
  m_CorrespondingSourceObject: {fileID: 0}
  m_PrefabInstance: {fileID: 0}
  m_PrefabAsset: {fileID: 0}
  m_GameObject: {fileID: 4811937276114587710}
  m_LocalRotation: {x: 6.938894e-18, y: 0, z: -0, w: 1}
  m_LocalPosition: {x: -0, y: 0.15590928, z: 0.0000026155608}
  m_LocalScale: {x: 1, y: 1, z: 1}
  m_Children:
  - {fileID: 1278191655668837879}
  - {fileID: 6252056689905362309}
  - {fileID: 2154965919309058322}
  m_Father: {fileID: 8377420107291650880}
  m_RootOrder: 0
  m_LocalEulerAnglesHint: {x: 0, y: 0, z: 0}
--- !u!1 &5018543445019772863
GameObject:
  m_ObjectHideFlags: 0
  m_CorrespondingSourceObject: {fileID: 0}
  m_PrefabInstance: {fileID: 0}
  m_PrefabAsset: {fileID: 0}
  serializedVersion: 6
  m_Component:
  - component: {fileID: 4974522993685776361}
  - component: {fileID: 3972448010095030064}
  m_Layer: 0
  m_Name: _Base
  m_TagString: Untagged
  m_Icon: {fileID: 0}
  m_NavMeshLayer: 0
  m_StaticEditorFlags: 0
  m_IsActive: 1
--- !u!4 &4974522993685776361
Transform:
  m_ObjectHideFlags: 0
  m_CorrespondingSourceObject: {fileID: 0}
  m_PrefabInstance: {fileID: 0}
  m_PrefabAsset: {fileID: 0}
  m_GameObject: {fileID: 5018543445019772863}
  m_LocalRotation: {x: 0, y: -0, z: -0, w: 1}
  m_LocalPosition: {x: -0, y: 0, z: 0}
  m_LocalScale: {x: 1, y: 1, z: 1}
  m_Children: []
  m_Father: {fileID: 5166739633405998098}
  m_RootOrder: 0
  m_LocalEulerAnglesHint: {x: 0, y: 0, z: 0}
--- !u!137 &3972448010095030064
SkinnedMeshRenderer:
  m_ObjectHideFlags: 0
  m_CorrespondingSourceObject: {fileID: 0}
  m_PrefabInstance: {fileID: 0}
  m_PrefabAsset: {fileID: 0}
  m_GameObject: {fileID: 5018543445019772863}
  m_Enabled: 1
  m_CastShadows: 1
  m_ReceiveShadows: 1
  m_DynamicOccludee: 1
  m_MotionVectors: 1
  m_LightProbeUsage: 1
  m_ReflectionProbeUsage: 1
  m_RayTracingMode: 0
  m_RenderingLayerMask: 1
  m_RendererPriority: 0
  m_Materials:
  - {fileID: 2100000, guid: 3d6010730cf3e6c4b9f8443e336b07cd, type: 2}
  m_StaticBatchInfo:
    firstSubMesh: 0
    subMeshCount: 0
  m_StaticBatchRoot: {fileID: 0}
  m_ProbeAnchor: {fileID: 0}
  m_LightProbeVolumeOverride: {fileID: 0}
  m_ScaleInLightmap: 1
  m_ReceiveGI: 1
  m_PreserveUVs: 0
  m_IgnoreNormalsForChartDetection: 0
  m_ImportantGI: 0
  m_StitchLightmapSeams: 1
  m_SelectedEditorRenderState: 3
  m_MinimumChartSize: 4
  m_AutoUVMaxDistance: 0.5
  m_AutoUVMaxAngle: 89
  m_LightmapParameters: {fileID: 0}
  m_SortingLayerID: 0
  m_SortingLayer: 0
  m_SortingOrder: 0
  serializedVersion: 2
  m_Quality: 0
  m_UpdateWhenOffscreen: 0
  m_SkinnedMotionVectors: 1
  m_Mesh: {fileID: -1924333685358557852, guid: 251dfec516f241e448f0d3dc579e1e77, type: 3}
  m_Bones:
  - {fileID: 4632269685988726420}
  - {fileID: 4639219303194448690}
  - {fileID: 2154965919309058322}
  - {fileID: 6401471564746266997}
  - {fileID: 7237314424224007405}
  - {fileID: 5874495898557772657}
  - {fileID: 4434281910212348541}
  - {fileID: 6562958109441913597}
  - {fileID: 1470591286461894250}
  - {fileID: 1466418495335334225}
  - {fileID: 7979242010476511221}
  - {fileID: 795139852452830133}
  - {fileID: 8377420107291650880}
  - {fileID: 3163865962333771540}
  - {fileID: 9081904864761228989}
  - {fileID: 6565898154654503269}
  - {fileID: 6252056689905362309}
  - {fileID: 3149365507443954405}
  - {fileID: 1278191655668837879}
  - {fileID: 8401421276507048617}
  - {fileID: 7794663517266570098}
  - {fileID: 3891397971351478442}
  m_BlendShapeWeights: []
  m_RootBone: {fileID: 4632269685988726420}
  m_AABB:
    m_Center: {x: 0.003522694, y: 0.21956524, z: -0.014107481}
    m_Extent: {x: 1.0699706, y: 1.1860644, z: 0.46133256}
  m_DirtyAABB: 0
--- !u!1 &6291962824727273963
GameObject:
  m_ObjectHideFlags: 0
  m_CorrespondingSourceObject: {fileID: 0}
  m_PrefabInstance: {fileID: 0}
  m_PrefabAsset: {fileID: 0}
  serializedVersion: 6
  m_Component:
  - component: {fileID: 4639219303194448690}
  m_Layer: 0
  m_Name: mixamorig:Spine
  m_TagString: Untagged
  m_Icon: {fileID: 0}
  m_NavMeshLayer: 0
  m_StaticEditorFlags: 0
  m_IsActive: 1
--- !u!4 &4639219303194448690
Transform:
  m_ObjectHideFlags: 0
  m_CorrespondingSourceObject: {fileID: 0}
  m_PrefabInstance: {fileID: 0}
  m_PrefabAsset: {fileID: 0}
  m_GameObject: {fileID: 6291962824727273963}
  m_LocalRotation: {x: -0.040782847, y: 0, z: -0, w: 0.99916804}
  m_LocalPosition: {x: 0.000003, y: 0.116546, z: -0.009528}
  m_LocalScale: {x: 1, y: 1.0000266, z: 1.0000266}
  m_Children:
  - {fileID: 8377420107291650880}
  m_Father: {fileID: 4632269685988726420}
  m_RootOrder: 2
  m_LocalEulerAnglesHint: {x: 0, y: 0, z: 0}
--- !u!1 &6690567791114621697
GameObject:
  m_ObjectHideFlags: 0
  m_CorrespondingSourceObject: {fileID: 0}
  m_PrefabInstance: {fileID: 0}
  m_PrefabAsset: {fileID: 0}
  serializedVersion: 6
  m_Component:
  - component: {fileID: 4434281910212348541}
  m_Layer: 0
  m_Name: mixamorig:LeftUpLeg
  m_TagString: Untagged
  m_Icon: {fileID: 0}
  m_NavMeshLayer: 0
  m_StaticEditorFlags: 0
  m_IsActive: 1
--- !u!4 &4434281910212348541
Transform:
  m_ObjectHideFlags: 0
  m_CorrespondingSourceObject: {fileID: 0}
  m_PrefabInstance: {fileID: 0}
  m_PrefabAsset: {fileID: 0}
  m_GameObject: {fileID: 6690567791114621697}
  m_LocalRotation: {x: -0.000026663878, y: 0.044794466, z: 0.99899244, w: 0.0027539274}
  m_LocalPosition: {x: -0.17974898, y: -0.064766996, z: 0.0055779996}
  m_LocalScale: {x: 1.0000151, y: 1.0000283, z: 1.0000131}
  m_Children:
  - {fileID: 6562958109441913597}
  m_Father: {fileID: 4632269685988726420}
  m_RootOrder: 0
  m_LocalEulerAnglesHint: {x: 0, y: 0, z: 0}
--- !u!1 &6721851053381620902
GameObject:
  m_ObjectHideFlags: 0
  m_CorrespondingSourceObject: {fileID: 0}
  m_PrefabInstance: {fileID: 0}
  m_PrefabAsset: {fileID: 0}
  serializedVersion: 6
  m_Component:
  - component: {fileID: 6252056689905362309}
  m_Layer: 0
  m_Name: mixamorig:Neck
  m_TagString: Untagged
  m_Icon: {fileID: 0}
  m_NavMeshLayer: 0
  m_StaticEditorFlags: 0
  m_IsActive: 1
--- !u!4 &6252056689905362309
Transform:
  m_ObjectHideFlags: 0
  m_CorrespondingSourceObject: {fileID: 0}
  m_PrefabInstance: {fileID: 0}
  m_PrefabAsset: {fileID: 0}
  m_GameObject: {fileID: 6721851053381620902}
  m_LocalRotation: {x: 0.040782847, y: 0, z: -0, w: 0.99916804}
  m_LocalPosition: {x: -0, y: 0.17539865, z: 0.0000019967938}
  m_LocalScale: {x: 1, y: 0.9999734, z: 0.9999734}
  m_Children:
  - {fileID: 3149365507443954405}
  m_Father: {fileID: 6565898154654503269}
  m_RootOrder: 1
  m_LocalEulerAnglesHint: {x: 0, y: 0, z: 0}
--- !u!1 &6903178538172833211
GameObject:
  m_ObjectHideFlags: 0
  m_CorrespondingSourceObject: {fileID: 0}
  m_PrefabInstance: {fileID: 0}
  m_PrefabAsset: {fileID: 0}
  serializedVersion: 6
  m_Component:
  - component: {fileID: 1466418495335334225}
  m_Layer: 0
  m_Name: mixamorig:LeftToeBase
  m_TagString: Untagged
  m_Icon: {fileID: 0}
  m_NavMeshLayer: 0
  m_StaticEditorFlags: 0
  m_IsActive: 1
--- !u!4 &1466418495335334225
Transform:
  m_ObjectHideFlags: 0
  m_CorrespondingSourceObject: {fileID: 0}
  m_PrefabInstance: {fileID: 0}
  m_PrefabAsset: {fileID: 0}
  m_GameObject: {fileID: 6903178538172833211}
  m_LocalRotation: {x: 0.38243973, y: 0.017681938, z: -0.0073132687, w: 0.9237823}
  m_LocalPosition: {x: -0.000003632504, y: 0.25581843, z: 0.000005403058}
  m_LocalScale: {x: 1.0000771, y: 0.9999439, z: 1.0000193}
  m_Children: []
  m_Father: {fileID: 1470591286461894250}
  m_RootOrder: 0
  m_LocalEulerAnglesHint: {x: 0, y: 0, z: 0}
--- !u!1 &7172380833113213079
GameObject:
  m_ObjectHideFlags: 0
  m_CorrespondingSourceObject: {fileID: 0}
  m_PrefabInstance: {fileID: 0}
  m_PrefabAsset: {fileID: 0}
  serializedVersion: 6
  m_Component:
  - component: {fileID: 1470591286461894250}
  m_Layer: 0
  m_Name: mixamorig:LeftFoot
  m_TagString: Untagged
  m_Icon: {fileID: 0}
  m_NavMeshLayer: 0
  m_StaticEditorFlags: 0
  m_IsActive: 1
--- !u!4 &1470591286461894250
Transform:
  m_ObjectHideFlags: 0
  m_CorrespondingSourceObject: {fileID: 0}
  m_PrefabInstance: {fileID: 0}
  m_PrefabAsset: {fileID: 0}
  m_GameObject: {fileID: 7172380833113213079}
  m_LocalRotation: {x: 0.47166634, y: -0.028072791, z: -0.0012928685, w: 0.8813292}
  m_LocalPosition: {x: 0.000012651814, y: 0.2242348, z: -0.00000036400738}
  m_LocalScale: {x: 0.9999489, y: 1.0000378, z: 1.0000385}
  m_Children:
  - {fileID: 1466418495335334225}
  m_Father: {fileID: 6562958109441913597}
  m_RootOrder: 0
  m_LocalEulerAnglesHint: {x: 0, y: 0, z: 0}
--- !u!1 &7310524058667497803
GameObject:
  m_ObjectHideFlags: 0
  m_CorrespondingSourceObject: {fileID: 0}
  m_PrefabInstance: {fileID: 0}
  m_PrefabAsset: {fileID: 0}
  serializedVersion: 6
  m_Component:
  - component: {fileID: 9081904864761228989}
  m_Layer: 0
  m_Name: mixamorig:RightToeBase
  m_TagString: Untagged
  m_Icon: {fileID: 0}
  m_NavMeshLayer: 0
  m_StaticEditorFlags: 0
  m_IsActive: 1
--- !u!4 &9081904864761228989
Transform:
  m_ObjectHideFlags: 0
  m_CorrespondingSourceObject: {fileID: 0}
  m_PrefabInstance: {fileID: 0}
  m_PrefabAsset: {fileID: 0}
  m_GameObject: {fileID: 7310524058667497803}
  m_LocalRotation: {x: 0.38606623, y: -0.018029917, z: 0.007490883, w: 0.92226446}
  m_LocalPosition: {x: 0.000014515987, y: 0.25378606, z: 0.00000406419}
  m_LocalScale: {x: 0.9999379, y: 1.0000612, z: 1.000037}
  m_Children: []
  m_Father: {fileID: 3163865962333771540}
  m_RootOrder: 0
  m_LocalEulerAnglesHint: {x: 0, y: 0, z: 0}
--- !u!1 &8131333640897215320
GameObject:
  m_ObjectHideFlags: 0
  m_CorrespondingSourceObject: {fileID: 0}
  m_PrefabInstance: {fileID: 0}
  m_PrefabAsset: {fileID: 0}
  serializedVersion: 6
  m_Component:
  - component: {fileID: 3163865962333771540}
  m_Layer: 0
  m_Name: mixamorig:RightFoot
  m_TagString: Untagged
  m_Icon: {fileID: 0}
  m_NavMeshLayer: 0
  m_StaticEditorFlags: 0
  m_IsActive: 1
--- !u!4 &3163865962333771540
Transform:
  m_ObjectHideFlags: 0
  m_CorrespondingSourceObject: {fileID: 0}
  m_PrefabInstance: {fileID: 0}
  m_PrefabAsset: {fileID: 0}
  m_GameObject: {fileID: 8131333640897215320}
  m_LocalRotation: {x: 0.46895766, y: 0.028542664, z: 0.0012805549, w: 0.8827584}
  m_LocalPosition: {x: 0.000008735107, y: 0.22420941, z: 0.0000060120956}
  m_LocalScale: {x: 0.9999987, y: 1.0000559, z: 0.9999408}
  m_Children:
  - {fileID: 9081904864761228989}
  m_Father: {fileID: 795139852452830133}
  m_RootOrder: 0
  m_LocalEulerAnglesHint: {x: 0, y: 0, z: 0}
--- !u!1 &8207998932753466881
GameObject:
  m_ObjectHideFlags: 0
  m_CorrespondingSourceObject: {fileID: 0}
  m_PrefabInstance: {fileID: 0}
  m_PrefabAsset: {fileID: 0}
  serializedVersion: 6
  m_Component:
  - component: {fileID: 5166739633405998098}
  - component: {fileID: 2431067775582343415}
  - component: {fileID: 6928452362741264386}
  - component: {fileID: 9145704409308619232}
  m_Layer: 0
  m_Name: Boy
  m_TagString: Untagged
  m_Icon: {fileID: 0}
  m_NavMeshLayer: 0
  m_StaticEditorFlags: 0
  m_IsActive: 1
--- !u!4 &5166739633405998098
Transform:
  m_ObjectHideFlags: 0
  m_CorrespondingSourceObject: {fileID: 0}
  m_PrefabInstance: {fileID: 0}
  m_PrefabAsset: {fileID: 0}
  m_GameObject: {fileID: 8207998932753466881}
  m_LocalRotation: {x: 0, y: 0, z: 0, w: 1}
  m_LocalPosition: {x: 0, y: 0, z: 0}
  m_LocalScale: {x: 1, y: 1, z: 1}
  m_Children:
  - {fileID: 4974522993685776361}
  - {fileID: 4632269685988726420}
  - {fileID: 4101971218599240837}
  m_Father: {fileID: 0}
  m_RootOrder: 0
  m_LocalEulerAnglesHint: {x: 0, y: 0, z: 0}
--- !u!95 &2431067775582343415
Animator:
  serializedVersion: 3
  m_ObjectHideFlags: 0
  m_CorrespondingSourceObject: {fileID: 0}
  m_PrefabInstance: {fileID: 0}
  m_PrefabAsset: {fileID: 0}
  m_GameObject: {fileID: 8207998932753466881}
  m_Enabled: 1
  m_Avatar: {fileID: 9000000, guid: 4aad05ba5ebc90c4289f5aedc8aafeb6, type: 3}
  m_Controller: {fileID: 0}
  m_CullingMode: 1
  m_UpdateMode: 0
  m_ApplyRootMotion: 1
  m_LinearVelocityBlending: 0
  m_WarningMessage: 
  m_HasTransformHierarchy: 1
  m_AllowConstantClipSamplingOptimization: 1
  m_KeepAnimatorControllerStateOnDisable: 0
--- !u!54 &6928452362741264386
Rigidbody:
  m_ObjectHideFlags: 0
  m_CorrespondingSourceObject: {fileID: 0}
  m_PrefabInstance: {fileID: 0}
  m_PrefabAsset: {fileID: 0}
  m_GameObject: {fileID: 8207998932753466881}
  serializedVersion: 2
  m_Mass: 1
  m_Drag: 0
  m_AngularDrag: 0.05
  m_UseGravity: 0
  m_IsKinematic: 0
  m_Interpolate: 0
  m_Constraints: 112
  m_CollisionDetection: 0
--- !u!65 &9145704409308619232
BoxCollider:
  m_ObjectHideFlags: 0
  m_CorrespondingSourceObject: {fileID: 0}
  m_PrefabInstance: {fileID: 0}
  m_PrefabAsset: {fileID: 0}
  m_GameObject: {fileID: 8207998932753466881}
  m_Material: {fileID: 0}
  m_IsTrigger: 0
  m_Enabled: 1
  serializedVersion: 2
  m_Size: {x: 1.1255682, y: 2.1481116, z: 1}
  m_Center: {x: 0.04011431, y: 1.0494395, z: 0}
--- !u!1 &8532232206442595177
GameObject:
  m_ObjectHideFlags: 0
  m_CorrespondingSourceObject: {fileID: 0}
  m_PrefabInstance: {fileID: 0}
  m_PrefabAsset: {fileID: 0}
  serializedVersion: 6
  m_Component:
  - component: {fileID: 7237314424224007405}
  m_Layer: 0
  m_Name: mixamorig:RightForeArm
  m_TagString: Untagged
  m_Icon: {fileID: 0}
  m_NavMeshLayer: 0
  m_StaticEditorFlags: 0
  m_IsActive: 1
--- !u!4 &7237314424224007405
Transform:
  m_ObjectHideFlags: 0
  m_CorrespondingSourceObject: {fileID: 0}
  m_PrefabInstance: {fileID: 0}
  m_PrefabAsset: {fileID: 0}
  m_GameObject: {fileID: 8532232206442595177}
  m_LocalRotation: {x: -3.6949297e-27, y: 0.0010048583, z: -1.2305781e-19, w: 0.9999995}
  m_LocalPosition: {x: 0.00000025380757, y: 0.31576598, z: 0.0000029892892}
  m_LocalScale: {x: 1.0000321, y: 1, z: 1.0000321}
  m_Children:
  - {fileID: 5874495898557772657}
  m_Father: {fileID: 6401471564746266997}
  m_RootOrder: 0
  m_LocalEulerAnglesHint: {x: 0, y: 0, z: 0}
--- !u!1 &8906040573535907220
GameObject:
  m_ObjectHideFlags: 0
  m_CorrespondingSourceObject: {fileID: 0}
  m_PrefabInstance: {fileID: 0}
  m_PrefabAsset: {fileID: 0}
  serializedVersion: 6
  m_Component:
  - component: {fileID: 795139852452830133}
  m_Layer: 0
  m_Name: mixamorig:RightLeg
  m_TagString: Untagged
  m_Icon: {fileID: 0}
  m_NavMeshLayer: 0
  m_StaticEditorFlags: 0
  m_IsActive: 1
--- !u!4 &795139852452830133
Transform:
  m_ObjectHideFlags: 0
  m_CorrespondingSourceObject: {fileID: 0}
  m_PrefabInstance: {fileID: 0}
  m_PrefabAsset: {fileID: 0}
  m_GameObject: {fileID: 8906040573535907220}
  m_LocalRotation: {x: -0.13788949, y: 0.00036834797, z: -0.006088929, w: 0.99042886}
  m_LocalPosition: {x: 0.000010030895, y: 0.27088776, z: -0.0000057747175}
  m_LocalScale: {x: 1.0000073, y: 1.000003, z: 0.9999947}
  m_Children:
  - {fileID: 3163865962333771540}
  m_Father: {fileID: 7979242010476511221}
  m_RootOrder: 0
  m_LocalEulerAnglesHint: {x: 0, y: 0, z: 0}
--- !u!1001 &763350343
PrefabInstance:
  m_ObjectHideFlags: 0
  serializedVersion: 2
  m_Modification:
    m_TransformParent: {fileID: 5874495898557772657}
    m_Modifications:
    - target: {fileID: 2132191407545353618, guid: 5b8de550cc150214fbae1316611ed806,
        type: 3}
      propertyPath: m_Name
      value: AK
      objectReference: {fileID: 0}
    - target: {fileID: 3155977776787847041, guid: 5b8de550cc150214fbae1316611ed806,
        type: 3}
      propertyPath: m_LocalPosition.x
      value: -0.024
      objectReference: {fileID: 0}
    - target: {fileID: 3155977776787847041, guid: 5b8de550cc150214fbae1316611ed806,
        type: 3}
      propertyPath: m_LocalPosition.y
      value: 0.097
      objectReference: {fileID: 0}
    - target: {fileID: 3155977776787847041, guid: 5b8de550cc150214fbae1316611ed806,
        type: 3}
      propertyPath: m_LocalPosition.z
      value: -0.016
      objectReference: {fileID: 0}
    - target: {fileID: 3155977776787847041, guid: 5b8de550cc150214fbae1316611ed806,
        type: 3}
      propertyPath: m_LocalRotation.x
      value: 0.5766314
      objectReference: {fileID: 0}
    - target: {fileID: 3155977776787847041, guid: 5b8de550cc150214fbae1316611ed806,
        type: 3}
      propertyPath: m_LocalRotation.y
      value: -0.41742238
      objectReference: {fileID: 0}
    - target: {fileID: 3155977776787847041, guid: 5b8de550cc150214fbae1316611ed806,
        type: 3}
      propertyPath: m_LocalRotation.z
      value: -0.39199388
      objectReference: {fileID: 0}
    - target: {fileID: 3155977776787847041, guid: 5b8de550cc150214fbae1316611ed806,
        type: 3}
      propertyPath: m_LocalRotation.w
      value: -0.58274823
      objectReference: {fileID: 0}
    - target: {fileID: 3155977776787847041, guid: 5b8de550cc150214fbae1316611ed806,
        type: 3}
      propertyPath: m_RootOrder
      value: 1
      objectReference: {fileID: 0}
    - target: {fileID: 3155977776787847041, guid: 5b8de550cc150214fbae1316611ed806,
        type: 3}
      propertyPath: m_LocalEulerAnglesHint.x
      value: 0
      objectReference: {fileID: 0}
    - target: {fileID: 3155977776787847041, guid: 5b8de550cc150214fbae1316611ed806,
        type: 3}
      propertyPath: m_LocalEulerAnglesHint.y
      value: 0
      objectReference: {fileID: 0}
    - target: {fileID: 3155977776787847041, guid: 5b8de550cc150214fbae1316611ed806,
        type: 3}
      propertyPath: m_LocalEulerAnglesHint.z
      value: 0
      objectReference: {fileID: 0}
    - target: {fileID: 3155977776787847041, guid: 5b8de550cc150214fbae1316611ed806,
        type: 3}
      propertyPath: m_LocalScale.y
      value: 1
      objectReference: {fileID: 0}
    - target: {fileID: 3155977776787847041, guid: 5b8de550cc150214fbae1316611ed806,
        type: 3}
      propertyPath: m_LocalScale.z
      value: 1
      objectReference: {fileID: 0}
    - target: {fileID: 4991759496589335291, guid: 5b8de550cc150214fbae1316611ed806,
        type: 3}
      propertyPath: m_Controller
      value: 
      objectReference: {fileID: 0}
    m_RemovedComponents: []
  m_SourcePrefab: {fileID: 100100000, guid: 5b8de550cc150214fbae1316611ed806, type: 3}
--- !u!4 &3155977776461822662 stripped
Transform:
  m_CorrespondingSourceObject: {fileID: 3155977776787847041, guid: 5b8de550cc150214fbae1316611ed806,
    type: 3}
  m_PrefabInstance: {fileID: 763350343}
  m_PrefabAsset: {fileID: 0}
--- !u!1001 &777830755
PrefabInstance:
  m_ObjectHideFlags: 0
  serializedVersion: 2
  m_Modification:
    m_TransformParent: {fileID: 5874495898557772657}
    m_Modifications:
    - target: {fileID: 2651733821280748375, guid: 086107a2b95233b4d9afe724aa955b68,
        type: 3}
      propertyPath: m_Controller
      value: 
      objectReference: {fileID: 0}
    - target: {fileID: 5352205028591447597, guid: 086107a2b95233b4d9afe724aa955b68,
        type: 3}
      propertyPath: m_LocalPosition.x
      value: -0.024
      objectReference: {fileID: 0}
    - target: {fileID: 5352205028591447597, guid: 086107a2b95233b4d9afe724aa955b68,
        type: 3}
      propertyPath: m_LocalPosition.y
      value: 0.097
      objectReference: {fileID: 0}
    - target: {fileID: 5352205028591447597, guid: 086107a2b95233b4d9afe724aa955b68,
        type: 3}
      propertyPath: m_LocalPosition.z
      value: -0.016
      objectReference: {fileID: 0}
    - target: {fileID: 5352205028591447597, guid: 086107a2b95233b4d9afe724aa955b68,
        type: 3}
      propertyPath: m_LocalRotation.x
      value: 0.5766314
      objectReference: {fileID: 0}
    - target: {fileID: 5352205028591447597, guid: 086107a2b95233b4d9afe724aa955b68,
        type: 3}
      propertyPath: m_LocalRotation.y
      value: -0.41742238
      objectReference: {fileID: 0}
    - target: {fileID: 5352205028591447597, guid: 086107a2b95233b4d9afe724aa955b68,
        type: 3}
      propertyPath: m_LocalRotation.z
      value: -0.39199388
      objectReference: {fileID: 0}
    - target: {fileID: 5352205028591447597, guid: 086107a2b95233b4d9afe724aa955b68,
        type: 3}
      propertyPath: m_LocalRotation.w
      value: -0.58274823
      objectReference: {fileID: 0}
    - target: {fileID: 5352205028591447597, guid: 086107a2b95233b4d9afe724aa955b68,
        type: 3}
      propertyPath: m_RootOrder
      value: 4
      objectReference: {fileID: 0}
    - target: {fileID: 5352205028591447597, guid: 086107a2b95233b4d9afe724aa955b68,
        type: 3}
      propertyPath: m_LocalEulerAnglesHint.x
      value: 0
      objectReference: {fileID: 0}
    - target: {fileID: 5352205028591447597, guid: 086107a2b95233b4d9afe724aa955b68,
        type: 3}
      propertyPath: m_LocalEulerAnglesHint.y
      value: 0
      objectReference: {fileID: 0}
    - target: {fileID: 5352205028591447597, guid: 086107a2b95233b4d9afe724aa955b68,
        type: 3}
      propertyPath: m_LocalEulerAnglesHint.z
      value: 0
      objectReference: {fileID: 0}
    - target: {fileID: 8943449317861383230, guid: 086107a2b95233b4d9afe724aa955b68,
        type: 3}
      propertyPath: m_Name
      value: WaterGun_1
      objectReference: {fileID: 0}
    m_RemovedComponents: []
  m_SourcePrefab: {fileID: 100100000, guid: 086107a2b95233b4d9afe724aa955b68, type: 3}
--- !u!4 &5352205029159497550 stripped
Transform:
  m_CorrespondingSourceObject: {fileID: 5352205028591447597, guid: 086107a2b95233b4d9afe724aa955b68,
    type: 3}
  m_PrefabInstance: {fileID: 777830755}
  m_PrefabAsset: {fileID: 0}
--- !u!1001 &1589163559
PrefabInstance:
  m_ObjectHideFlags: 0
  serializedVersion: 2
  m_Modification:
    m_TransformParent: {fileID: 5874495898557772657}
    m_Modifications:
    - target: {fileID: 1009113996007351256, guid: 5a646858c97a49647bb0699188ff8779,
        type: 3}
      propertyPath: m_Name
      value: WaterGun_2
      objectReference: {fileID: 0}
    - target: {fileID: 4060643835434389963, guid: 5a646858c97a49647bb0699188ff8779,
        type: 3}
      propertyPath: m_LocalPosition.x
      value: -0.024
      objectReference: {fileID: 0}
    - target: {fileID: 4060643835434389963, guid: 5a646858c97a49647bb0699188ff8779,
        type: 3}
      propertyPath: m_LocalPosition.y
      value: 0.097
      objectReference: {fileID: 0}
    - target: {fileID: 4060643835434389963, guid: 5a646858c97a49647bb0699188ff8779,
        type: 3}
      propertyPath: m_LocalPosition.z
      value: -0.016
      objectReference: {fileID: 0}
    - target: {fileID: 4060643835434389963, guid: 5a646858c97a49647bb0699188ff8779,
        type: 3}
      propertyPath: m_LocalRotation.x
      value: 0.5766314
      objectReference: {fileID: 0}
    - target: {fileID: 4060643835434389963, guid: 5a646858c97a49647bb0699188ff8779,
        type: 3}
      propertyPath: m_LocalRotation.y
      value: -0.41742238
      objectReference: {fileID: 0}
    - target: {fileID: 4060643835434389963, guid: 5a646858c97a49647bb0699188ff8779,
        type: 3}
      propertyPath: m_LocalRotation.z
      value: -0.39199388
      objectReference: {fileID: 0}
    - target: {fileID: 4060643835434389963, guid: 5a646858c97a49647bb0699188ff8779,
        type: 3}
      propertyPath: m_LocalRotation.w
      value: -0.58274823
      objectReference: {fileID: 0}
    - target: {fileID: 4060643835434389963, guid: 5a646858c97a49647bb0699188ff8779,
        type: 3}
      propertyPath: m_RootOrder
      value: 3
      objectReference: {fileID: 0}
    - target: {fileID: 4060643835434389963, guid: 5a646858c97a49647bb0699188ff8779,
        type: 3}
      propertyPath: m_LocalEulerAnglesHint.x
      value: 0
      objectReference: {fileID: 0}
    - target: {fileID: 4060643835434389963, guid: 5a646858c97a49647bb0699188ff8779,
        type: 3}
      propertyPath: m_LocalEulerAnglesHint.y
      value: 0
      objectReference: {fileID: 0}
    - target: {fileID: 4060643835434389963, guid: 5a646858c97a49647bb0699188ff8779,
        type: 3}
      propertyPath: m_LocalEulerAnglesHint.z
      value: 0
      objectReference: {fileID: 0}
    - target: {fileID: 6255585422939192497, guid: 5a646858c97a49647bb0699188ff8779,
        type: 3}
      propertyPath: m_Controller
      value: 
      objectReference: {fileID: 0}
    m_RemovedComponents: []
  m_SourcePrefab: {fileID: 100100000, guid: 5a646858c97a49647bb0699188ff8779, type: 3}
--- !u!4 &4060643833997354988 stripped
Transform:
  m_CorrespondingSourceObject: {fileID: 4060643835434389963, guid: 5a646858c97a49647bb0699188ff8779,
    type: 3}
  m_PrefabInstance: {fileID: 1589163559}
  m_PrefabAsset: {fileID: 0}
--- !u!1001 &1669976886
PrefabInstance:
  m_ObjectHideFlags: 0
  serializedVersion: 2
  m_Modification:
    m_TransformParent: {fileID: 5874495898557772657}
    m_Modifications:
    - target: {fileID: 2163691535832871399, guid: 17af6e9c1c15d77428da1403335ef90b,
        type: 3}
      propertyPath: m_Name
      value: M4
      objectReference: {fileID: 0}
    - target: {fileID: 2908657011287688180, guid: 17af6e9c1c15d77428da1403335ef90b,
        type: 3}
      propertyPath: m_LocalPosition.x
      value: -0.024
      objectReference: {fileID: 0}
    - target: {fileID: 2908657011287688180, guid: 17af6e9c1c15d77428da1403335ef90b,
        type: 3}
      propertyPath: m_LocalPosition.y
      value: 0.097
      objectReference: {fileID: 0}
    - target: {fileID: 2908657011287688180, guid: 17af6e9c1c15d77428da1403335ef90b,
        type: 3}
      propertyPath: m_LocalPosition.z
      value: -0.016
      objectReference: {fileID: 0}
    - target: {fileID: 2908657011287688180, guid: 17af6e9c1c15d77428da1403335ef90b,
        type: 3}
      propertyPath: m_LocalRotation.x
      value: 0.5766314
      objectReference: {fileID: 0}
    - target: {fileID: 2908657011287688180, guid: 17af6e9c1c15d77428da1403335ef90b,
        type: 3}
      propertyPath: m_LocalRotation.y
      value: -0.41742238
      objectReference: {fileID: 0}
    - target: {fileID: 2908657011287688180, guid: 17af6e9c1c15d77428da1403335ef90b,
        type: 3}
      propertyPath: m_LocalRotation.z
      value: -0.39199388
      objectReference: {fileID: 0}
    - target: {fileID: 2908657011287688180, guid: 17af6e9c1c15d77428da1403335ef90b,
        type: 3}
      propertyPath: m_LocalRotation.w
      value: -0.58274823
      objectReference: {fileID: 0}
    - target: {fileID: 2908657011287688180, guid: 17af6e9c1c15d77428da1403335ef90b,
        type: 3}
      propertyPath: m_RootOrder
      value: 2
      objectReference: {fileID: 0}
    - target: {fileID: 2908657011287688180, guid: 17af6e9c1c15d77428da1403335ef90b,
        type: 3}
      propertyPath: m_LocalEulerAnglesHint.x
      value: 0
      objectReference: {fileID: 0}
    - target: {fileID: 2908657011287688180, guid: 17af6e9c1c15d77428da1403335ef90b,
        type: 3}
      propertyPath: m_LocalEulerAnglesHint.y
      value: 0
      objectReference: {fileID: 0}
    - target: {fileID: 2908657011287688180, guid: 17af6e9c1c15d77428da1403335ef90b,
        type: 3}
      propertyPath: m_LocalEulerAnglesHint.z
      value: 0
      objectReference: {fileID: 0}
    - target: {fileID: 5104728909632777870, guid: 17af6e9c1c15d77428da1403335ef90b,
        type: 3}
      propertyPath: m_Controller
      value: 
      objectReference: {fileID: 0}
    m_RemovedComponents: []
  m_SourcePrefab: {fileID: 100100000, guid: 17af6e9c1c15d77428da1403335ef90b, type: 3}
--- !u!4 &2908657012856934594 stripped
Transform:
  m_CorrespondingSourceObject: {fileID: 2908657011287688180, guid: 17af6e9c1c15d77428da1403335ef90b,
    type: 3}
  m_PrefabInstance: {fileID: 1669976886}
  m_PrefabAsset: {fileID: 0}
--- !u!1001 &1325878310825313279
PrefabInstance:
  m_ObjectHideFlags: 0
  serializedVersion: 2
  m_Modification:
    m_TransformParent: {fileID: 3149365507443954405}
    m_Modifications:
    - target: {fileID: 4921577565442915758, guid: 6d5d8df7ee087de46b84fba617997ff1,
        type: 3}
      propertyPath: m_Name
      value: Glasses_Bright
      objectReference: {fileID: 0}
    - target: {fileID: 4921577565442915758, guid: 6d5d8df7ee087de46b84fba617997ff1,
        type: 3}
      propertyPath: m_IsActive
      value: 0
      objectReference: {fileID: 0}
    - target: {fileID: 8221230275658993597, guid: 6d5d8df7ee087de46b84fba617997ff1,
        type: 3}
      propertyPath: m_LocalPosition.x
      value: 0
      objectReference: {fileID: 0}
    - target: {fileID: 8221230275658993597, guid: 6d5d8df7ee087de46b84fba617997ff1,
        type: 3}
      propertyPath: m_LocalPosition.y
      value: 0
      objectReference: {fileID: 0}
    - target: {fileID: 8221230275658993597, guid: 6d5d8df7ee087de46b84fba617997ff1,
        type: 3}
      propertyPath: m_LocalPosition.z
      value: 0
      objectReference: {fileID: 0}
    - target: {fileID: 8221230275658993597, guid: 6d5d8df7ee087de46b84fba617997ff1,
        type: 3}
      propertyPath: m_LocalRotation.x
      value: -0
      objectReference: {fileID: 0}
    - target: {fileID: 8221230275658993597, guid: 6d5d8df7ee087de46b84fba617997ff1,
        type: 3}
      propertyPath: m_LocalRotation.y
      value: -0
      objectReference: {fileID: 0}
    - target: {fileID: 8221230275658993597, guid: 6d5d8df7ee087de46b84fba617997ff1,
        type: 3}
      propertyPath: m_LocalRotation.z
      value: -0
      objectReference: {fileID: 0}
    - target: {fileID: 8221230275658993597, guid: 6d5d8df7ee087de46b84fba617997ff1,
        type: 3}
      propertyPath: m_LocalRotation.w
      value: 1
      objectReference: {fileID: 0}
    - target: {fileID: 8221230275658993597, guid: 6d5d8df7ee087de46b84fba617997ff1,
        type: 3}
      propertyPath: m_RootOrder
      value: 2
      objectReference: {fileID: 0}
    - target: {fileID: 8221230275658993597, guid: 6d5d8df7ee087de46b84fba617997ff1,
        type: 3}
      propertyPath: m_LocalEulerAnglesHint.x
      value: 0
      objectReference: {fileID: 0}
    - target: {fileID: 8221230275658993597, guid: 6d5d8df7ee087de46b84fba617997ff1,
        type: 3}
      propertyPath: m_LocalEulerAnglesHint.y
      value: 0
      objectReference: {fileID: 0}
    - target: {fileID: 8221230275658993597, guid: 6d5d8df7ee087de46b84fba617997ff1,
        type: 3}
      propertyPath: m_LocalEulerAnglesHint.z
      value: 0
      objectReference: {fileID: 0}
    m_RemovedComponents: []
  m_SourcePrefab: {fileID: 100100000, guid: 6d5d8df7ee087de46b84fba617997ff1, type: 3}
--- !u!4 &6949575583352491074 stripped
Transform:
  m_CorrespondingSourceObject: {fileID: 8221230275658993597, guid: 6d5d8df7ee087de46b84fba617997ff1,
    type: 3}
  m_PrefabInstance: {fileID: 1325878310825313279}
  m_PrefabAsset: {fileID: 0}
--- !u!1001 &1449124566039174820
PrefabInstance:
  m_ObjectHideFlags: 0
  serializedVersion: 2
  m_Modification:
    m_TransformParent: {fileID: 3891397971351478442}
    m_Modifications:
    - target: {fileID: 5636932190024483272, guid: e6b2cdc36594b2e4fae092238c59a944,
        type: 3}
      propertyPath: m_LocalPosition.x
      value: 0
      objectReference: {fileID: 0}
    - target: {fileID: 5636932190024483272, guid: e6b2cdc36594b2e4fae092238c59a944,
        type: 3}
      propertyPath: m_LocalPosition.y
      value: 0
      objectReference: {fileID: 0}
    - target: {fileID: 5636932190024483272, guid: e6b2cdc36594b2e4fae092238c59a944,
        type: 3}
      propertyPath: m_LocalPosition.z
      value: 0
      objectReference: {fileID: 0}
    - target: {fileID: 5636932190024483272, guid: e6b2cdc36594b2e4fae092238c59a944,
        type: 3}
      propertyPath: m_LocalRotation.x
      value: 0.000000014815162
      objectReference: {fileID: 0}
    - target: {fileID: 5636932190024483272, guid: e6b2cdc36594b2e4fae092238c59a944,
        type: 3}
      propertyPath: m_LocalRotation.y
      value: 0.00000003010791
      objectReference: {fileID: 0}
    - target: {fileID: 5636932190024483272, guid: e6b2cdc36594b2e4fae092238c59a944,
        type: 3}
      propertyPath: m_LocalRotation.z
      value: -0.00000007450841
      objectReference: {fileID: 0}
    - target: {fileID: 5636932190024483272, guid: e6b2cdc36594b2e4fae092238c59a944,
        type: 3}
      propertyPath: m_LocalRotation.w
      value: 1
      objectReference: {fileID: 0}
    - target: {fileID: 5636932190024483272, guid: e6b2cdc36594b2e4fae092238c59a944,
        type: 3}
      propertyPath: m_RootOrder
      value: 0
      objectReference: {fileID: 0}
    - target: {fileID: 5636932190024483272, guid: e6b2cdc36594b2e4fae092238c59a944,
        type: 3}
      propertyPath: m_LocalEulerAnglesHint.x
      value: 0
      objectReference: {fileID: 0}
    - target: {fileID: 5636932190024483272, guid: e6b2cdc36594b2e4fae092238c59a944,
        type: 3}
      propertyPath: m_LocalEulerAnglesHint.y
      value: 0
      objectReference: {fileID: 0}
    - target: {fileID: 5636932190024483272, guid: e6b2cdc36594b2e4fae092238c59a944,
        type: 3}
      propertyPath: m_LocalEulerAnglesHint.z
      value: 0
      objectReference: {fileID: 0}
    - target: {fileID: 5636932190024483272, guid: e6b2cdc36594b2e4fae092238c59a944,
        type: 3}
      propertyPath: m_LocalScale.x
      value: 1
      objectReference: {fileID: 0}
    - target: {fileID: 5636932190024483272, guid: e6b2cdc36594b2e4fae092238c59a944,
        type: 3}
      propertyPath: m_LocalScale.z
      value: 1
      objectReference: {fileID: 0}
    - target: {fileID: 8674282728453649371, guid: e6b2cdc36594b2e4fae092238c59a944,
        type: 3}
      propertyPath: m_Name
      value: Glove_Left
      objectReference: {fileID: 0}
    - target: {fileID: 8674282728453649371, guid: e6b2cdc36594b2e4fae092238c59a944,
        type: 3}
      propertyPath: m_IsActive
      value: 0
      objectReference: {fileID: 0}
    m_RemovedComponents: []
  m_SourcePrefab: {fileID: 100100000, guid: e6b2cdc36594b2e4fae092238c59a944, type: 3}
--- !u!4 &6495937698519408492 stripped
Transform:
  m_CorrespondingSourceObject: {fileID: 5636932190024483272, guid: e6b2cdc36594b2e4fae092238c59a944,
    type: 3}
  m_PrefabInstance: {fileID: 1449124566039174820}
  m_PrefabAsset: {fileID: 0}
--- !u!1001 &1860754625732529928
PrefabInstance:
  m_ObjectHideFlags: 0
  serializedVersion: 2
  m_Modification:
    m_TransformParent: {fileID: 3149365507443954405}
    m_Modifications:
    - target: {fileID: 112528994262380234, guid: 706136a5bbf40034c94b48ad7618113f,
        type: 3}
      propertyPath: m_LocalPosition.x
      value: -0
      objectReference: {fileID: 0}
    - target: {fileID: 112528994262380234, guid: 706136a5bbf40034c94b48ad7618113f,
        type: 3}
      propertyPath: m_LocalPosition.y
      value: 0
      objectReference: {fileID: 0}
    - target: {fileID: 112528994262380234, guid: 706136a5bbf40034c94b48ad7618113f,
        type: 3}
      propertyPath: m_LocalPosition.z
      value: 0
      objectReference: {fileID: 0}
    - target: {fileID: 112528994262380234, guid: 706136a5bbf40034c94b48ad7618113f,
        type: 3}
      propertyPath: m_LocalRotation.x
      value: 0
      objectReference: {fileID: 0}
    - target: {fileID: 112528994262380234, guid: 706136a5bbf40034c94b48ad7618113f,
        type: 3}
      propertyPath: m_LocalRotation.y
      value: -0
      objectReference: {fileID: 0}
    - target: {fileID: 112528994262380234, guid: 706136a5bbf40034c94b48ad7618113f,
        type: 3}
      propertyPath: m_LocalRotation.z
      value: -0
      objectReference: {fileID: 0}
    - target: {fileID: 112528994262380234, guid: 706136a5bbf40034c94b48ad7618113f,
        type: 3}
      propertyPath: m_LocalRotation.w
      value: 1
      objectReference: {fileID: 0}
    - target: {fileID: 112528994262380234, guid: 706136a5bbf40034c94b48ad7618113f,
        type: 3}
      propertyPath: m_RootOrder
      value: 5
      objectReference: {fileID: 0}
    - target: {fileID: 112528994262380234, guid: 706136a5bbf40034c94b48ad7618113f,
        type: 3}
      propertyPath: m_LocalEulerAnglesHint.x
      value: 0
      objectReference: {fileID: 0}
    - target: {fileID: 112528994262380234, guid: 706136a5bbf40034c94b48ad7618113f,
        type: 3}
      propertyPath: m_LocalEulerAnglesHint.y
      value: 0
      objectReference: {fileID: 0}
    - target: {fileID: 112528994262380234, guid: 706136a5bbf40034c94b48ad7618113f,
        type: 3}
      propertyPath: m_LocalEulerAnglesHint.z
      value: 0
      objectReference: {fileID: 0}
    - target: {fileID: 4023000203390229721, guid: 706136a5bbf40034c94b48ad7618113f,
        type: 3}
      propertyPath: m_Name
      value: Beanie
      objectReference: {fileID: 0}
    - target: {fileID: 4023000203390229721, guid: 706136a5bbf40034c94b48ad7618113f,
        type: 3}
      propertyPath: m_IsActive
      value: 0
      objectReference: {fileID: 0}
    m_RemovedComponents: []
  m_SourcePrefab: {fileID: 100100000, guid: 706136a5bbf40034c94b48ad7618113f, type: 3}
--- !u!4 &1755685869706224066 stripped
Transform:
  m_CorrespondingSourceObject: {fileID: 112528994262380234, guid: 706136a5bbf40034c94b48ad7618113f,
    type: 3}
  m_PrefabInstance: {fileID: 1860754625732529928}
  m_PrefabAsset: {fileID: 0}
--- !u!1001 &3784685814272194150
PrefabInstance:
  m_ObjectHideFlags: 0
  serializedVersion: 2
  m_Modification:
    m_TransformParent: {fileID: 3149365507443954405}
    m_Modifications:
    - target: {fileID: 6721237149981342588, guid: df819ef214b26504ba6270950853edde,
        type: 3}
      propertyPath: m_LocalPosition.x
      value: 0
      objectReference: {fileID: 0}
    - target: {fileID: 6721237149981342588, guid: df819ef214b26504ba6270950853edde,
        type: 3}
      propertyPath: m_LocalPosition.y
      value: 0
      objectReference: {fileID: 0}
    - target: {fileID: 6721237149981342588, guid: df819ef214b26504ba6270950853edde,
        type: 3}
      propertyPath: m_LocalPosition.z
      value: 0
      objectReference: {fileID: 0}
    - target: {fileID: 6721237149981342588, guid: df819ef214b26504ba6270950853edde,
        type: 3}
      propertyPath: m_LocalRotation.x
      value: -0
      objectReference: {fileID: 0}
    - target: {fileID: 6721237149981342588, guid: df819ef214b26504ba6270950853edde,
        type: 3}
      propertyPath: m_LocalRotation.y
      value: -0
      objectReference: {fileID: 0}
    - target: {fileID: 6721237149981342588, guid: df819ef214b26504ba6270950853edde,
        type: 3}
      propertyPath: m_LocalRotation.z
      value: -0
      objectReference: {fileID: 0}
    - target: {fileID: 6721237149981342588, guid: df819ef214b26504ba6270950853edde,
        type: 3}
      propertyPath: m_LocalRotation.w
      value: 1
      objectReference: {fileID: 0}
    - target: {fileID: 6721237149981342588, guid: df819ef214b26504ba6270950853edde,
        type: 3}
      propertyPath: m_RootOrder
      value: 4
      objectReference: {fileID: 0}
    - target: {fileID: 6721237149981342588, guid: df819ef214b26504ba6270950853edde,
        type: 3}
      propertyPath: m_LocalEulerAnglesHint.x
      value: 0
      objectReference: {fileID: 0}
    - target: {fileID: 6721237149981342588, guid: df819ef214b26504ba6270950853edde,
        type: 3}
      propertyPath: m_LocalEulerAnglesHint.y
      value: 0
      objectReference: {fileID: 0}
    - target: {fileID: 6721237149981342588, guid: df819ef214b26504ba6270950853edde,
        type: 3}
      propertyPath: m_LocalEulerAnglesHint.z
      value: 0
      objectReference: {fileID: 0}
    - target: {fileID: 7718598338066319727, guid: df819ef214b26504ba6270950853edde,
        type: 3}
      propertyPath: m_Name
      value: Headphones
      objectReference: {fileID: 0}
    - target: {fileID: 7718598338066319727, guid: df819ef214b26504ba6270950853edde,
        type: 3}
      propertyPath: m_IsActive
      value: 0
      objectReference: {fileID: 0}
    m_RemovedComponents: []
  m_SourcePrefab: {fileID: 100100000, guid: df819ef214b26504ba6270950853edde, type: 3}
--- !u!4 &7621012105980579098 stripped
Transform:
  m_CorrespondingSourceObject: {fileID: 6721237149981342588, guid: df819ef214b26504ba6270950853edde,
    type: 3}
  m_PrefabInstance: {fileID: 3784685814272194150}
  m_PrefabAsset: {fileID: 0}
--- !u!1001 &4917458191790318986
PrefabInstance:
  m_ObjectHideFlags: 0
  serializedVersion: 2
  m_Modification:
    m_TransformParent: {fileID: 3149365507443954405}
    m_Modifications:
    - target: {fileID: 6285584681651237700, guid: 84ac9183f1d465441bacb762abc9797f,
        type: 3}
      propertyPath: m_Name
      value: Cap
      objectReference: {fileID: 0}
    - target: {fileID: 6285584681651237700, guid: 84ac9183f1d465441bacb762abc9797f,
        type: 3}
      propertyPath: m_IsActive
      value: 0
      objectReference: {fileID: 0}
    - target: {fileID: 7017092209726161239, guid: 84ac9183f1d465441bacb762abc9797f,
        type: 3}
      propertyPath: m_LocalPosition.x
      value: 0
      objectReference: {fileID: 0}
    - target: {fileID: 7017092209726161239, guid: 84ac9183f1d465441bacb762abc9797f,
        type: 3}
      propertyPath: m_LocalPosition.y
      value: 0
      objectReference: {fileID: 0}
    - target: {fileID: 7017092209726161239, guid: 84ac9183f1d465441bacb762abc9797f,
        type: 3}
      propertyPath: m_LocalPosition.z
      value: 0
      objectReference: {fileID: 0}
    - target: {fileID: 7017092209726161239, guid: 84ac9183f1d465441bacb762abc9797f,
        type: 3}
      propertyPath: m_LocalRotation.x
      value: -0
      objectReference: {fileID: 0}
    - target: {fileID: 7017092209726161239, guid: 84ac9183f1d465441bacb762abc9797f,
        type: 3}
      propertyPath: m_LocalRotation.y
      value: -0
      objectReference: {fileID: 0}
    - target: {fileID: 7017092209726161239, guid: 84ac9183f1d465441bacb762abc9797f,
        type: 3}
      propertyPath: m_LocalRotation.z
      value: -0
      objectReference: {fileID: 0}
    - target: {fileID: 7017092209726161239, guid: 84ac9183f1d465441bacb762abc9797f,
        type: 3}
      propertyPath: m_LocalRotation.w
      value: 1
      objectReference: {fileID: 0}
    - target: {fileID: 7017092209726161239, guid: 84ac9183f1d465441bacb762abc9797f,
        type: 3}
      propertyPath: m_RootOrder
      value: 0
      objectReference: {fileID: 0}
    - target: {fileID: 7017092209726161239, guid: 84ac9183f1d465441bacb762abc9797f,
        type: 3}
      propertyPath: m_LocalEulerAnglesHint.x
      value: 0
      objectReference: {fileID: 0}
    - target: {fileID: 7017092209726161239, guid: 84ac9183f1d465441bacb762abc9797f,
        type: 3}
      propertyPath: m_LocalEulerAnglesHint.y
      value: 0
      objectReference: {fileID: 0}
    - target: {fileID: 7017092209726161239, guid: 84ac9183f1d465441bacb762abc9797f,
        type: 3}
      propertyPath: m_LocalEulerAnglesHint.z
      value: 0
      objectReference: {fileID: 0}
    m_RemovedComponents: []
  m_SourcePrefab: {fileID: 100100000, guid: 84ac9183f1d465441bacb762abc9797f, type: 3}
--- !u!4 &2693128405823300829 stripped
Transform:
  m_CorrespondingSourceObject: {fileID: 7017092209726161239, guid: 84ac9183f1d465441bacb762abc9797f,
    type: 3}
  m_PrefabInstance: {fileID: 4917458191790318986}
  m_PrefabAsset: {fileID: 0}
--- !u!1001 &5722589819691347542
PrefabInstance:
  m_ObjectHideFlags: 0
  serializedVersion: 2
  m_Modification:
    m_TransformParent: {fileID: 3149365507443954405}
    m_Modifications:
    - target: {fileID: 5033955148093669445, guid: 53a1016fcc76f5c41bd7682f1076df2e,
        type: 3}
      propertyPath: m_LocalPosition.x
      value: 0
      objectReference: {fileID: 0}
    - target: {fileID: 5033955148093669445, guid: 53a1016fcc76f5c41bd7682f1076df2e,
        type: 3}
      propertyPath: m_LocalPosition.y
      value: 0
      objectReference: {fileID: 0}
    - target: {fileID: 5033955148093669445, guid: 53a1016fcc76f5c41bd7682f1076df2e,
        type: 3}
      propertyPath: m_LocalPosition.z
      value: 0
      objectReference: {fileID: 0}
    - target: {fileID: 5033955148093669445, guid: 53a1016fcc76f5c41bd7682f1076df2e,
        type: 3}
      propertyPath: m_LocalRotation.x
      value: -0
      objectReference: {fileID: 0}
    - target: {fileID: 5033955148093669445, guid: 53a1016fcc76f5c41bd7682f1076df2e,
        type: 3}
      propertyPath: m_LocalRotation.y
      value: -0
      objectReference: {fileID: 0}
    - target: {fileID: 5033955148093669445, guid: 53a1016fcc76f5c41bd7682f1076df2e,
        type: 3}
      propertyPath: m_LocalRotation.z
      value: -0
      objectReference: {fileID: 0}
    - target: {fileID: 5033955148093669445, guid: 53a1016fcc76f5c41bd7682f1076df2e,
        type: 3}
      propertyPath: m_LocalRotation.w
      value: 1
      objectReference: {fileID: 0}
    - target: {fileID: 5033955148093669445, guid: 53a1016fcc76f5c41bd7682f1076df2e,
        type: 3}
      propertyPath: m_RootOrder
      value: 3
      objectReference: {fileID: 0}
    - target: {fileID: 5033955148093669445, guid: 53a1016fcc76f5c41bd7682f1076df2e,
        type: 3}
      propertyPath: m_LocalEulerAnglesHint.x
      value: 0
      objectReference: {fileID: 0}
    - target: {fileID: 5033955148093669445, guid: 53a1016fcc76f5c41bd7682f1076df2e,
        type: 3}
      propertyPath: m_LocalEulerAnglesHint.y
      value: 0
      objectReference: {fileID: 0}
    - target: {fileID: 5033955148093669445, guid: 53a1016fcc76f5c41bd7682f1076df2e,
        type: 3}
      propertyPath: m_LocalEulerAnglesHint.z
      value: 0
      objectReference: {fileID: 0}
    - target: {fileID: 8324739335275000406, guid: 53a1016fcc76f5c41bd7682f1076df2e,
        type: 3}
      propertyPath: m_Name
      value: Face_Base
      objectReference: {fileID: 0}
    - target: {fileID: 8324739335275000406, guid: 53a1016fcc76f5c41bd7682f1076df2e,
        type: 3}
      propertyPath: m_IsActive
      value: 0
      objectReference: {fileID: 0}
    m_RemovedComponents: []
  m_SourcePrefab: {fileID: 100100000, guid: 53a1016fcc76f5c41bd7682f1076df2e, type: 3}
--- !u!4 &771956764410605075 stripped
Transform:
  m_CorrespondingSourceObject: {fileID: 5033955148093669445, guid: 53a1016fcc76f5c41bd7682f1076df2e,
    type: 3}
  m_PrefabInstance: {fileID: 5722589819691347542}
  m_PrefabAsset: {fileID: 0}
--- !u!1001 &6239268871414818384
PrefabInstance:
  m_ObjectHideFlags: 0
  serializedVersion: 2
  m_Modification:
    m_TransformParent: {fileID: 5874495898557772657}
    m_Modifications:
    - target: {fileID: 6452261317050768832, guid: 09d6d0183378f5d41988d600d100e24d,
        type: 3}
      propertyPath: m_Name
      value: Glove_Right
      objectReference: {fileID: 0}
    - target: {fileID: 6452261317050768832, guid: 09d6d0183378f5d41988d600d100e24d,
        type: 3}
      propertyPath: m_IsActive
      value: 0
      objectReference: {fileID: 0}
    - target: {fileID: 8057028396914896851, guid: 09d6d0183378f5d41988d600d100e24d,
        type: 3}
      propertyPath: m_LocalPosition.x
      value: 0
      objectReference: {fileID: 0}
    - target: {fileID: 8057028396914896851, guid: 09d6d0183378f5d41988d600d100e24d,
        type: 3}
      propertyPath: m_LocalPosition.y
      value: 0
      objectReference: {fileID: 0}
    - target: {fileID: 8057028396914896851, guid: 09d6d0183378f5d41988d600d100e24d,
        type: 3}
      propertyPath: m_LocalPosition.z
      value: 0
      objectReference: {fileID: 0}
    - target: {fileID: 8057028396914896851, guid: 09d6d0183378f5d41988d600d100e24d,
        type: 3}
      propertyPath: m_LocalRotation.x
      value: 0.000000022302377
      objectReference: {fileID: 0}
    - target: {fileID: 8057028396914896851, guid: 09d6d0183378f5d41988d600d100e24d,
        type: 3}
      propertyPath: m_LocalRotation.y
      value: -0.000000036496196
      objectReference: {fileID: 0}
    - target: {fileID: 8057028396914896851, guid: 09d6d0183378f5d41988d600d100e24d,
        type: 3}
      propertyPath: m_LocalRotation.z
      value: 0.00000003937637
      objectReference: {fileID: 0}
    - target: {fileID: 8057028396914896851, guid: 09d6d0183378f5d41988d600d100e24d,
        type: 3}
      propertyPath: m_LocalRotation.w
      value: 1
      objectReference: {fileID: 0}
    - target: {fileID: 8057028396914896851, guid: 09d6d0183378f5d41988d600d100e24d,
        type: 3}
      propertyPath: m_RootOrder
      value: 0
      objectReference: {fileID: 0}
    - target: {fileID: 8057028396914896851, guid: 09d6d0183378f5d41988d600d100e24d,
        type: 3}
      propertyPath: m_LocalEulerAnglesHint.x
      value: 0
      objectReference: {fileID: 0}
    - target: {fileID: 8057028396914896851, guid: 09d6d0183378f5d41988d600d100e24d,
        type: 3}
      propertyPath: m_LocalEulerAnglesHint.y
      value: 0
      objectReference: {fileID: 0}
    - target: {fileID: 8057028396914896851, guid: 09d6d0183378f5d41988d600d100e24d,
        type: 3}
      propertyPath: m_LocalEulerAnglesHint.z
      value: 0
      objectReference: {fileID: 0}
    - target: {fileID: 8057028396914896851, guid: 09d6d0183378f5d41988d600d100e24d,
        type: 3}
      propertyPath: m_LocalScale.x
      value: 1
      objectReference: {fileID: 0}
    - target: {fileID: 8057028396914896851, guid: 09d6d0183378f5d41988d600d100e24d,
        type: 3}
      propertyPath: m_LocalScale.z
      value: 1
      objectReference: {fileID: 0}
    m_RemovedComponents: []
  m_SourcePrefab: {fileID: 100100000, guid: 09d6d0183378f5d41988d600d100e24d, type: 3}
--- !u!4 &4126991987629738371 stripped
Transform:
  m_CorrespondingSourceObject: {fileID: 8057028396914896851, guid: 09d6d0183378f5d41988d600d100e24d,
    type: 3}
  m_PrefabInstance: {fileID: 6239268871414818384}
  m_PrefabAsset: {fileID: 0}
--- !u!1001 &6611856053334165234
PrefabInstance:
  m_ObjectHideFlags: 0
  serializedVersion: 2
  m_Modification:
    m_TransformParent: {fileID: 3149365507443954405}
    m_Modifications:
    - target: {fileID: 823813382937377118, guid: 5b2c2ba871a1bad4184ae394a78fa519,
        type: 3}
      propertyPath: m_LocalPosition.x
      value: 0
      objectReference: {fileID: 0}
    - target: {fileID: 823813382937377118, guid: 5b2c2ba871a1bad4184ae394a78fa519,
        type: 3}
      propertyPath: m_LocalPosition.y
      value: 0
      objectReference: {fileID: 0}
    - target: {fileID: 823813382937377118, guid: 5b2c2ba871a1bad4184ae394a78fa519,
        type: 3}
      propertyPath: m_LocalPosition.z
      value: 0
      objectReference: {fileID: 0}
    - target: {fileID: 823813382937377118, guid: 5b2c2ba871a1bad4184ae394a78fa519,
        type: 3}
      propertyPath: m_LocalRotation.x
      value: -0
      objectReference: {fileID: 0}
    - target: {fileID: 823813382937377118, guid: 5b2c2ba871a1bad4184ae394a78fa519,
        type: 3}
      propertyPath: m_LocalRotation.y
      value: -0
      objectReference: {fileID: 0}
    - target: {fileID: 823813382937377118, guid: 5b2c2ba871a1bad4184ae394a78fa519,
        type: 3}
      propertyPath: m_LocalRotation.z
      value: -0
      objectReference: {fileID: 0}
    - target: {fileID: 823813382937377118, guid: 5b2c2ba871a1bad4184ae394a78fa519,
        type: 3}
      propertyPath: m_LocalRotation.w
      value: 1
      objectReference: {fileID: 0}
    - target: {fileID: 823813382937377118, guid: 5b2c2ba871a1bad4184ae394a78fa519,
        type: 3}
      propertyPath: m_RootOrder
      value: 1
      objectReference: {fileID: 0}
    - target: {fileID: 823813382937377118, guid: 5b2c2ba871a1bad4184ae394a78fa519,
        type: 3}
      propertyPath: m_LocalEulerAnglesHint.x
      value: 0
      objectReference: {fileID: 0}
    - target: {fileID: 823813382937377118, guid: 5b2c2ba871a1bad4184ae394a78fa519,
        type: 3}
      propertyPath: m_LocalEulerAnglesHint.y
      value: 0
      objectReference: {fileID: 0}
    - target: {fileID: 823813382937377118, guid: 5b2c2ba871a1bad4184ae394a78fa519,
        type: 3}
      propertyPath: m_LocalEulerAnglesHint.z
      value: 0
      objectReference: {fileID: 0}
    - target: {fileID: 4410603143753567053, guid: 5b2c2ba871a1bad4184ae394a78fa519,
        type: 3}
      propertyPath: m_Name
      value: Glasses_Dark
      objectReference: {fileID: 0}
    - target: {fileID: 4410603143753567053, guid: 5b2c2ba871a1bad4184ae394a78fa519,
        type: 3}
      propertyPath: m_IsActive
      value: 0
      objectReference: {fileID: 0}
    m_RemovedComponents: []
  m_SourcePrefab: {fileID: 100100000, guid: 5b2c2ba871a1bad4184ae394a78fa519, type: 3}
--- !u!4 &5813247600711581612 stripped
Transform:
  m_CorrespondingSourceObject: {fileID: 823813382937377118, guid: 5b2c2ba871a1bad4184ae394a78fa519,
    type: 3}
  m_PrefabInstance: {fileID: 6611856053334165234}
  m_PrefabAsset: {fileID: 0}
--- !u!1001 &8972781001319888308
PrefabInstance:
  m_ObjectHideFlags: 0
  serializedVersion: 2
  m_Modification:
    m_TransformParent: {fileID: 5166739633405998098}
    m_Modifications:
    - target: {fileID: 2652122718244600362, guid: 8615ecbfcc0a4db439d23c6c3926081b,
        type: 3}
      propertyPath: target
      value: 
      objectReference: {fileID: 5018543445019772863}
    - target: {fileID: 4929358914890256689, guid: 8615ecbfcc0a4db439d23c6c3926081b,
        type: 3}
      propertyPath: m_LocalPosition.x
      value: 0
      objectReference: {fileID: 0}
    - target: {fileID: 4929358914890256689, guid: 8615ecbfcc0a4db439d23c6c3926081b,
        type: 3}
      propertyPath: m_LocalPosition.y
      value: 0
      objectReference: {fileID: 0}
    - target: {fileID: 4929358914890256689, guid: 8615ecbfcc0a4db439d23c6c3926081b,
        type: 3}
      propertyPath: m_LocalPosition.z
      value: 0
      objectReference: {fileID: 0}
    - target: {fileID: 4929358914890256689, guid: 8615ecbfcc0a4db439d23c6c3926081b,
        type: 3}
      propertyPath: m_LocalRotation.x
      value: 0
      objectReference: {fileID: 0}
    - target: {fileID: 4929358914890256689, guid: 8615ecbfcc0a4db439d23c6c3926081b,
        type: 3}
      propertyPath: m_LocalRotation.y
      value: 0
      objectReference: {fileID: 0}
    - target: {fileID: 4929358914890256689, guid: 8615ecbfcc0a4db439d23c6c3926081b,
        type: 3}
      propertyPath: m_LocalRotation.z
      value: 0
      objectReference: {fileID: 0}
    - target: {fileID: 4929358914890256689, guid: 8615ecbfcc0a4db439d23c6c3926081b,
        type: 3}
      propertyPath: m_LocalRotation.w
      value: 1
      objectReference: {fileID: 0}
    - target: {fileID: 4929358914890256689, guid: 8615ecbfcc0a4db439d23c6c3926081b,
        type: 3}
      propertyPath: m_RootOrder
      value: 2
      objectReference: {fileID: 0}
    - target: {fileID: 4929358914890256689, guid: 8615ecbfcc0a4db439d23c6c3926081b,
        type: 3}
      propertyPath: m_LocalEulerAnglesHint.x
      value: 0
      objectReference: {fileID: 0}
    - target: {fileID: 4929358914890256689, guid: 8615ecbfcc0a4db439d23c6c3926081b,
        type: 3}
      propertyPath: m_LocalEulerAnglesHint.y
      value: 0
      objectReference: {fileID: 0}
    - target: {fileID: 4929358914890256689, guid: 8615ecbfcc0a4db439d23c6c3926081b,
        type: 3}
      propertyPath: m_LocalEulerAnglesHint.z
      value: 0
      objectReference: {fileID: 0}
    - target: {fileID: 8229132085196399394, guid: 8615ecbfcc0a4db439d23c6c3926081b,
        type: 3}
      propertyPath: m_Name
      value: Jersey
      objectReference: {fileID: 0}
    - target: {fileID: 8229132085196399394, guid: 8615ecbfcc0a4db439d23c6c3926081b,
        type: 3}
      propertyPath: m_IsActive
      value: 0
      objectReference: {fileID: 0}
    m_RemovedComponents: []
  m_SourcePrefab: {fileID: 100100000, guid: 8615ecbfcc0a4db439d23c6c3926081b, type: 3}
--- !u!4 &4101971218599240837 stripped
Transform:
  m_CorrespondingSourceObject: {fileID: 4929358914890256689, guid: 8615ecbfcc0a4db439d23c6c3926081b,
    type: 3}
  m_PrefabInstance: {fileID: 8972781001319888308}
  m_PrefabAsset: {fileID: 0}
