# WaveFront *.obj file (generated by CINEMA 4D)

mtllib ./Arrow1.mtl

v -3.60558748245239 -0 16.00489616394043
v 3.83386540412903 -0 16.00489616394043
v -3.60558748245239 0 -2.08660864830017
v 3.82759428024292 0 -2.07283997535706
v -6.55684804916382 0 -2.10185170173645
v 0 0 -12.16822719573975
v 6.7629189491272 0 -2.10185170173645
v -3.60558748245239 3.33543610572815 16.00489616394043
v 3.83386540412903 3.33543610572815 16.00489616394043
v -3.60558748245239 3.33543610572815 -2.08660864830017
v 3.82759428024292 3.33543610572815 -2.07283997535706
v -6.55684804916382 3.33543610572815 -2.10185170173645
v 0 3.33543610572815 -12.16822719573975
v 6.7629189491272 3.33543610572815 -2.10185170173645
# 14 vertices

vn 0 0 -1
vn 0 0 0
vn 0 0 1
vn 0 0 1
vn 0 -1 0
vn 0.99999994039536 0.00034688916639 0
vn 0.99999994039536 0.00034688916639 0
vn 0.00988312531263 -0.99995118379593 0
vn 0.83006590604782 0.55766528844833 0
vn 0.83006590604782 0.55766534805298 0
vn 0.83006590604782 0.55766534805298 0
vn -0.83792197704315 0.54579001665115 0
vn -0.83792197704315 0.54579001665115 0
vn -0.00516484910622 -0.99998664855957 0
vn -0.00516484910622 -0.99998664855957 0
vn -1 0 0
vn -1 0 0
# 17 normals

vt 0.5 0.5 0
vt 1 0.5 0
vt 1 0 0
vt 0 1 0
vt 0.5 0 0
vt 0.5 1 0
vt 1 1 0
vt 0 0 0
vt 0 0.5 0
# 9 texture coordinates

o Arrow1
usemtl default
f 1/3/1 3/2/1 4/1/1
f 4/1/1 2/5/1 1/3/1
f 3/2/1 5/7/1 6/6/1
f 6/6/1 4/1/1 3/2/1
f 4/1/1 6/6/1 7/4/1
f 8/8/3 9/5/4 11/1/3
f 11/1/3 10/9/3 8/8/3
f 10/9/3 11/1/3 13/6/3
f 13/6/3 12/4/3 10/9/3
f 14/7/3 13/6/3 11/1/3
f 1/8/5 2/5/5 9/6/5
f 9/6/5 8/4/5 1/8/5
f 2/8/6 4/5/7 11/6/6
f 11/6/6 9/4/6 2/8/6
f 4/5/8 7/3/8 14/7/8
f 14/7/8 11/6/8 4/5/8
f 7/8/9 6/5/10 13/6/9
f 13/6/9 14/4/11 7/8/9
f 6/5/12 5/3/13 12/7/12
f 12/7/12 13/6/13 6/5/12
f 5/8/14 3/5/14 10/6/14
f 10/6/14 12/4/15 5/8/14
f 3/5/16 1/3/16 8/7/16
f 8/7/16 10/6/17 3/5/16

